Division,WeightClassKg,Place,Name,Team,BodyweightKg,Best3SquatKg,Best3BenchKg,Best3DeadliftKg,TotalKg,Equipment,Event,Sex
Boys,51.71,1,Mason Walker,Livingston,48.08,90.72,49.9,97.52,238.14,Single-ply,SBD,M
Boys,51.71,2,Austin Pruett,Shepherd,43.09,61.23,27.22,68.04,156.49,Single-ply,SBD,M
Boys,55.79,1,Ashton Mashaw,Conroe Caney Creek,55.79,167.83,90.72,181.44,439.98,Single-ply,SBD,M
Boys,55.79,2,Oscar Puente,New Caney,54.43,122.47,68.04,145.15,335.66,Single-ply,SBD,M
Boys,55.79,3,David Withers,Shepherd,54.88,129.27,58.97,124.74,312.98,Single-ply,SBD,M
Boys,55.79,4,Ethan Torres,New Caney,53.07,122.47,49.9,113.4,285.76,Single-ply,SBD,M
Boys,59.87,1,Clay Coogler,Shepherd,59.87,147.42,83.91,145.15,376.48,Single-ply,SBD,M
Boys,59.87,2,Raul Molina,Shepherd,56.06,111.13,63.5,120.2,294.84,Single-ply,SBD,M
Boys,67.13,1,Ivan Fuentes,Willis,66.36,183.7,108.86,197.31,489.88,Single-ply,SBD,M
Boys,67.13,2,Preston Pugh,Montgomery,66.68,149.69,92.99,192.78,435.45,Single-ply,SBD,M
Boys,67.13,3,Cameron Collier #2,Willis,65.5,142.88,83.91,151.95,378.75,Single-ply,SBD,M
Boys,67.13,4,Julian Cheek,Shepherd,61.23,133.81,68.04,131.54,333.39,Single-ply,SBD,M
Boys,67.13,5,Jase Brazzil,Montgomery,63.05,61.23,31.75,88.45,181.44,Single-ply,SBD,M
Boys,67.13,DQ,Zac Jenkins,Shepherd,66.68,174.63,,,,Single-ply,SBD,M
Boys,74.84,1,Colton Boatright,Shepherd,74.39,226.8,156.49,233.6,616.89,Single-ply,SBD,M
Boys,74.84,2,Eddie Cross,Coldspring-Oakhurst,73.94,201.85,136.08,206.38,544.31,Single-ply,SBD,M
Boys,74.84,3,BJ Mottu,Livingston,70.31,183.7,124.74,213.19,521.63,Single-ply,SBD,M
Boys,74.84,4,James Harrison #3,Shepherd,73.03,190.51,108.86,201.85,501.22,Single-ply,SBD,M
Boys,74.84,5,Jack Basham,Montgomery,69.85,124.74,81.65,151.95,358.34,Single-ply,SBD,M
Boys,82.1,1,Brandon Cheves,Shepherd,75.75,210.92,129.27,192.78,532.97,Single-ply,SBD,M
Boys,82.1,2,Jared Burke,Shepherd,80.74,201.85,142.88,188.24,532.97,Single-ply,SBD,M
Boys,82.1,3,Kane Placker,Livingston,81.19,188.24,120.2,183.7,492.15,Single-ply,SBD,M
Boys,82.1,4,John Salcido,Shepherd,80.29,176.9,120.2,176.9,474,Single-ply,SBD,M
Boys,82.1,5,Danny Garcia,New Caney,78.02,183.7,97.52,183.7,464.93,Single-ply,SBD,M
Boys,82.1,6,Riley Orn,Coldspring-Oakhurst,81.19,181.44,111.13,170.1,462.66,Single-ply,SBD,M
Boys,82.1,7,Jack Jorden,Coldspring-Oakhurst,82.1,142.88,79.38,151.95,374.21,Single-ply,SBD,M
Boys,89.81,1,Colby Lord,Montgomery,88.45,158.76,111.13,172.37,442.25,Single-ply,SBD,M
Boys,89.81,2,Jace Shrader,Shepherd,84.37,170.1,86.18,165.56,421.84,Single-ply,SBD,M
Boys,89.81,3,Evan House,Montgomery,83.46,149.69,83.91,163.29,396.89,Single-ply,SBD,M
Boys,89.81,4,Taylor Denner,Montgomery,88.9,140.61,92.99,154.22,387.82,Single-ply,SBD,M
Boys,89.81,DQ,Dakota Piper,Livingston,88.9,224.53,,,,Single-ply,SBD,M
Boys,99.79,1,Tyler Shirey,Shepherd,93.89,249.48,158.76,215.46,623.69,Single-ply,SBD,M
Boys,99.79,2,Brandon Mckean,Conroe Caney Creek,99.79,226.8,138.35,238.14,603.28,Single-ply,SBD,M
Boys,99.79,3,Caleb Richardson,New Caney,93.44,231.33,131.54,219.99,582.87,Single-ply,SBD,M
Boys,99.79,4,David Alsip,Conroe Caney Creek,92.53,197.31,117.93,210.92,526.17,Single-ply,SBD,M
Boys,99.79,5,John Kuhl,Willis,95.71,199.58,120.2,195.04,514.83,Single-ply,SBD,M
Boys,99.79,6,Isaiah Garcia,Shepherd,93.44,204.12,106.59,201.85,512.56,Single-ply,SBD,M
Boys,99.79,7,James Goodman,Montgomery,97.07,172.37,108.86,185.97,467.2,Single-ply,SBD,M
Boys,99.79,8,Halston Havard,Willis,92.31,142.88,52.16,113.4,308.44,Single-ply,SBD,M
Boys,99.79,DQ,Jorge Zumarraga,Willis,97.07,244.94,,,,Single-ply,SBD,M
Boys,109.77,1,Marcus Garza,Conroe Caney Creek,108.41,283.5,165.56,238.14,687.19,Single-ply,SBD,M
Boys,109.77,2,JP Garcia,Willis,107.05,226.8,129.27,206.38,562.45,Single-ply,SBD,M
Boys,109.77,3,Mason Guinn,Willis,109.59,183.7,97.52,226.8,508.02,Single-ply,SBD,M
Boys,109.77,4,Jake Jones,Willis,102.69,183.7,108.86,210.92,503.49,Single-ply,SBD,M
Boys,109.77,5,Cameron Barr,Conroe Caney Creek,108.41,181.44,104.33,158.76,444.52,Single-ply,SBD,M
Boys,109.77,6,Andrew Rhodes,Livingston,106.14,151.95,74.84,154.22,381.02,Single-ply,SBD,M
Boys,124.74,1,Nathaniel Sandoval,Conroe Caney Creek,112.04,244.94,151.95,226.8,623.69,Single-ply,SBD,M
Boys,124.74,2,Manuel Alamanza,New Caney,119.75,231.33,131.54,240.4,603.28,Single-ply,SBD,M
Boys,124.74,3,Jason Vargas,Willis,119.02,249.48,136.08,210.92,596.47,Single-ply,SBD,M
Boys,124.74,4,Blake Leslie,Montgomery,124.28,233.6,113.4,204.12,551.11,Single-ply,SBD,M
Boys,124.74,5,Jacob Carroll,New Caney,115.67,190.51,142.88,190.51,523.9,Single-ply,SBD,M
Boys,124.74,6,Clayton Martinez,Shepherd,111.13,204.12,97.52,201.85,503.49,Single-ply,SBD,M
Boys,124.74,7,Jace Mayfield,Willis,112.76,199.58,102.06,190.51,492.15,Single-ply,SBD,M
Boys,124.74+,1,Terry Carter,Livingston,156.04,344.73,185.97,299.37,830.07,Single-ply,SBD,M
Boys,124.74+,2,Quinlan Beck,Shepherd,145.15,333.39,192.78,249.48,775.64,Single-ply,SBD,M
Boys,124.74+,3,Zach Taylor,Shepherd,129.27,308.44,161.03,226.8,696.26,Single-ply,SBD,M
Boys,124.74+,4,James Hartman,Montgomery,125.65,208.65,77.11,183.7,469.47,Single-ply,SBD,M
Boys,124.74+,5,Benjamin Buruca,New Caney,128.82,170.1,86.18,201.85,458.13,Single-ply,SBD,M
Boys,124.74+,6,Michael Flores #5,Conroe Caney Creek,125.65,163.29,83.91,154.22,401.43,Single-ply,SBD,M
Boys,124.74+,DQ,Brent Holmes,Conroe Caney Creek,130.63,283.5,,,,Single-ply,SBD,M
Boys,,NS,Chad Currie,Coldspring-Oakhurst,,,,,,Single-ply,SBD,M
Boys,,NS,David Fulcher,Coldspring-Oakhurst,,,,,,Single-ply,SBD,M
Boys,,NS,Ethan Benestante,Coldspring-Oakhurst,,,,,,Single-ply,SBD,M
Boys,,NS,Garrett Matthews,Coldspring-Oakhurst,,,,,,Single-ply,SBD,M
Boys,,NS,Tanner Babin,Montgomery,,,,,,Single-ply,SBD,M
Boys,,NS,Anthony Geffert,New Caney,,,,,,Single-ply,SBD,M
Boys,,NS,Brent Patton,Conroe Caney Creek,,,,,,Single-ply,SBD,M
Boys,,NS,Ethan Robins,Conroe Caney Creek,,,,,,Single-ply,SBD,M
Boys,,NS,Alex Placios,Conroe Caney Creek,,,,,,Single-ply,SBD,M
Boys,,NS,William Mattison,Conroe Caney Creek,,,,,,Single-ply,SBD,M
Boys,,NS,Mica Legg,Livingston,,,,,,Single-ply,SBD,M
Boys,,NS,Will Broussard,Livingston,,,,,,Single-ply,SBD,M
Boys,,NS,Billy Dobbins,Livingston,,,,,,Single-ply,SBD,M
Boys,,NS,CJ Knighton,Livingston,,,,,,Single-ply,SBD,M
Boys,,NS,Sterling Mack,La Marque,,,,,,Single-ply,SBD,M
Boys,,NS,Cavion Mack,La Marque,,,,,,Single-ply,SBD,M
Boys,,NS,Russell Picknet,La Marque,,,,,,Single-ply,SBD,M
Boys,,NS,Malik Holmes,La Marque,,,,,,Single-ply,SBD,M
Boys,,NS,Devon Turner,La Marque,,,,,,Single-ply,SBD,M
