Place,Name,Sex,BirthDate,Age,Country,State,Equipment,Division,BodyweightKg,WeightClassKg,Squat1Kg,Squat2Kg,Squat3Kg,Squat4Kg,Best3SquatKg,Bench1Kg,Bench2Kg,Bench3Kg,Bench4Kg,Best3BenchKg,Deadlift1Kg,Deadlift2Kg,Deadlift3Kg,Deadlift4Kg,Best3DeadliftKg,TotalKg,Event
1,Caitlin Mulligan,F,1999-12-09,23,Australia,TAS,Wraps,J20-23,59.4,60,140,152.5,160,,160,70,75,-77.5,,75,152.5,165,-170,,165,400,SBD
DQ,Georgia Kitic,F,2001-01-19,22,Australia,TAS,Wraps,J20-23,65.1,67.5,125,130,135,,135,-70,-70,-70,,,132.5,137.5,-142.5,,137.5,,SBD
1,Isabelle Mulder,F,2000-04-09,22,Australia,TAS,Wraps,J20-23,72.9,75,120,-130,130,,130,62.5,67.5,-72.5,,67.5,152.5,162.5,-172.5,,162.5,360,SBD
2,Georgia Purton,F,2000-05-12,22,Australia,TAS,Wraps,J20-23,74,75,115,125,-130,,125,62.5,70,-75,,70,130,140,-150,,140,335,SBD
1,Emily Burr,F,1999-06-22,23,Australia,TAS,Wraps,J20-23,78.9,82.5,142.5,150,157.5,,157.5,85,90,92.5,,92.5,147.5,160,-170,,160,410,SBD
2,Emmanuell Oakey,F,2001-11-22,21,Australia,TAS,Wraps,J20-23,81.3,82.5,130,142.5,147.5,,147.5,60,-65,67.5,,67.5,130,145,155,,155,370,SBD
1,Ali Walker,F,1977-08-08,45,Australia,TAS,Wraps,M40-49,73.2,75,102.5,112.5,117.5,,117.5,45,50,52.5,,52.5,110,120,130,,130,300,SBD
1,Linda Blizzard,F,1966-09-25,56,Australia,TAS,Wraps,M50-59,90.3,90+,80,85,90,,90,50,55,57.5,,57.5,110,117.5,-125,,117.5,265,SBD
1,Sue Patmore,F,1962-09-09,60,Australia,TAS,Wraps,M60-69,93.9,90+,87.5,92.5,97.5,100,97.5,45,50,52.5,,52.5,127.5,137.5,-140,,137.5,287.5,SBD
1,Jorja Love,F,2004-03-25,18,Australia,TAS,Wraps,S17-19,66.5,67.5,95,107.5,-112.5,,107.5,40,42.5,-45,,42.5,110,120,-130,,120,270,SBD
1,Stella Reid,F,2005-01-20,18,Australia,TAS,Wraps,S17-19,74.1,75,120,-130,-130,,120,57.5,60,62.5,,62.5,135,145,-150,,145,327.5,SBD
2,Lauren Cashman,F,2005-03-02,17,Australia,TAS,Wraps,S17-19,68.6,75,115,122.5,130,,130,50,55,-57.5,,55,125,135,140,,140,325,SBD
DQ,Keyley Gunson,F,2004-08-07,18,Australia,TAS,Wraps,S17-19,76.5,82.5,125,132.5,140,,140,,,,,,,,,,,,SBD
1,Sophie Shepherd,F,2003-05-20,19,Australia,TAS,Wraps,S17-19,105.4,90+,135,145,150,,150,60,65,-67.5,,65,160,170,-180,,170,385,SBD
1,Ebony Jane Brown,F,1993-10-23,29,Australia,TAS,Wraps,S24-39,59.2,60,120,130,140,,140,55,60,-62.5,,60,130,140,150,,150,350,SBD
1,Hannah Berechree,F,1998-03-13,24,Australia,TAS,Wraps,S24-39,73.3,75,105,110,-117.5,,110,52.5,57.5,-60,,57.5,115,125,132.5,,132.5,300,SBD
DQ,Kiara Thomas,F,1994-12-31,28,Australia,TAS,Wraps,S24-39,115.6,90+,100,110,115,,115,77.5,-82.5,82.5,,82.5,,,,,,,SBD
1,Andaleena Triffett,F,2006-05-27,16,Australia,TAS,Wraps,T14-16,49.1,52,65,67.5,72.5,,72.5,32.5,35,37.5,,37.5,75,85,90,95.5,90,200,SBD
1,Anna Down,F,1999-09-30,23,Australia,TAS,Raw,J20-23,65.6,67.5,,,,,,50,55,60,,60,100,110,115,-117.5,115,175,BD
1,Bec Goodsell,F,1976-10-22,46,Australia,TAS,Raw,M40-49,79,82.5,,,,,,35,40,42.5,,42.5,95,102.5,110,,110,152.5,BD
1,India Graham,F,1998-12-15,24,Australia,TAS,Raw,S24-39,60,60,,,,,,62.5,67.5,70,,70,120,127.5,132.5,,132.5,202.5,BD
1,Abbey Pawlasty,F,1996-11-11,26,Australia,TAS,Raw,S24-39,65.6,67.5,,,,,,65,70,-75,,70,120,130,135,,135,205,BD
1,Larisa Barry,F,1997-09-29,25,Australia,TAS,Raw,S24-39,69.8,75,,,,,,55,60,62.5,,62.5,130,140,145,,145,207.5,BD
1,Amina Keygan,F,1983-11-19,39,Australia,TAS,Raw,S24-39,80,82.5,,,,,,70,75,-80,,75,,,,,,75,B
2,Nicole Carrick,F,1986-03-30,36,Australia,TAS,Raw,S24-39,82,82.5,,,,,,75,-80,-80,,75,,,,,,75,B
1,Janine Cooper,F,1950-05-22,72,Australia,TAS,Raw,M70+,86.1,90,,,,,,,,,,,85,92.5,-100,,92.5,92.5,D
1,Will Dyer,M,2003-01-17,20,Australia,TAS,Wraps,J20-23,80.5,82.5,100,112.5,120,,120,80,85,90,,90,150,-170,-180,,150,360,SBD
1,Isaac Gillard,M,1999-11-22,23,Australia,TAS,Wraps,J20-23,88.2,90,205,217.5,225,,225,162.5,173,-180,,173,227.5,237.5,245,,245,643,SBD
2,Tyler Ratcliff,M,2001-11-22,21,Australia,TAS,Wraps,J20-23,86.5,90,195,-210,-210,,195,135,142.5,150,,150,235,250,-265,,250,595,SBD
1,Zac Seadon,M,2003-01-02,20,Australia,TAS,Wraps,J20-23,97.7,100,255,280,290,,290,132.5,137.5,140,,140,285,305,-312.5,,305,735,SBD
2,Jordan Jessup,M,2000-01-12,23,Australia,TAS,Wraps,J20-23,96.8,100,200,210,220,,220,90,95,100,,100,190,210,220,,220,540,SBD
3,Samuel Peters,M,2000-12-18,22,Australia,TAS,Wraps,J20-23,98.4,100,190,-200,200,,200,120,-125,125,,125,-190,195,-202.5,,195,520,SBD
1,Clinton Dean,M,1973-04-06,49,Australia,TAS,Wraps,M40-49,74.8,75,125,135,-140,,135,75,-82.5,-82.5,,75,162.5,182.5,190,,190,400,SBD
1,Ryan Austen,M,1981-04-18,41,Australia,TAS,Wraps,M40-49,82.4,82.5,-205,205,-215,,205,145,-152.5,,,145,255,-262.5,-262.5,,255,605,SBD
1,Ben Coleman #2,M,1980-08-26,42,Australia,TAS,Wraps,M40-49,89,90,200,212.5,220.5,,220.5,110,120,125,,125,190,210,220,,220,565.5,SBD
1,Trevor Bantick,M,1969-11-21,53,Australia,TAS,Wraps,M50-59,105.8,110,220,250,270,,270,150,170,180,,180,220,240,265,,265,715,SBD
1,Peter Lee #1,M,1960-02-12,63,Australia,TAS,Wraps,M60-69,111.4,125,205,220,-235,,220,125,132.5,-137.5,,132.5,215,230,-250,,230,582.5,SBD
1,Harry Bartlett,M,2005-07-15,17,Australia,TAS,Wraps,S17-19,74.4,75,160,170,180,,180,87.5,92.5,97.5,,97.5,200,212.5,-217.5,,212.5,490,SBD
DQ,Josh Corkery,M,2006-08-02,16,Australia,TAS,Wraps,T14-16,69.6,75,110,120,130,,130,80,85,90,,90,,,,,,,SBD
1,Jack Williams #5,M,2004-01-10,19,Australia,TAS,Wraps,S17-19,88.5,90,170,185,192.5,,192.5,100,107.5,-115,,107.5,-195,205,220,,220,520,SBD
NS,Harlee Chauntler,M,1993-08-25,29,Australia,TAS,Wraps,S24-39,,,,,,,,,,,,,,,,,,,SBD
1,Jacob Howard,M,1998-10-19,24,Australia,TAS,Wraps,S24-39,69.7,75,165,175,185,,185,117.5,122.5,127.5,,127.5,182.5,195,-200,,195,507.5,SBD
1,Jamie Bayles,M,1990-01-30,33,Australia,TAS,Wraps,S24-39,82.1,82.5,180,-190,200,,200,122.5,-127.5,130,,130,190,200,210,,210,540,SBD
2,Luke Tepper,M,1992-05-04,30,Australia,TAS,Wraps,S24-39,81.2,82.5,135,145,-150,,145,95,-100,-100,,95,200,210,215,,215,455,SBD
1,Craig Perkins,M,1992-11-22,30,Australia,TAS,Wraps,S24-39,89.6,90,250,270,-275,,270,165,175,180,,180,260,280,-300,,280,730,SBD
2,Harlee Chauntler,M,1993-08-25,29,Australia,TAS,Wraps,S24-39,89,90,152.5,160,170,,170,85,-90,-90,,85,180,-200,,,180,435,SBD
1,Durin Dogala,F,1994-06-29,28,Australia,TAS,Wraps,S24-39,87.2,90,145,157.5,165,,165,70,-77.5,-77.5,,70,160,175,-180,,175,410,SBD
1,Peter Pike,M,1988-09-06,34,Australia,TAS,Wraps,S24-39,97.9,100,285,300,310,,310,160,170,-180,,170,290,305,320,,320,800,SBD
DQ,Chris Barker,M,1986-05-28,36,Australia,TAS,Wraps,S24-39,91.6,100,170,185,-195,,185,125,132.5,140,,140,-225,-235,-235,,,,SBD
1,Matto Vuceti,M,1990-07-04,32,Australia,TAS,Wraps,S24-39,103.6,110,270,287.5,-300,,287.5,160,175,180,,180,260,272.5,-280,,272.5,740,SBD
2,Anthony Xepapas,M,1989-08-28,33,Australia,TAS,Wraps,S24-39,101.1,110,225,-240,-250,,225,137.5,-142.5,-142.5,,137.5,240,260,-270,,260,622.5,SBD
1,Joshua Murray,M,1993-04-24,29,Australia,TAS,Wraps,S24-39,138.6,140,320,340,-352.5,,340,185,-195,-195,,185,300,320,-330,,320,845,SBD
1,Jake Wells,M,1989-02-08,34,Australia,TAS,Wraps,S24-39,163.7,140+,210,230,250,,250,160,170,-180,,170,260,280,300,,300,720,SBD
1,Jake Pegus,M,2008-12-06,14,Australia,TAS,Wraps,T14-16,58.7,60,70,80,87.5,,87.5,40,45,50,,50,95,105,-110,,105,242.5,SBD
1,Oliver Dean,M,2006-07-09,16,Australia,TAS,Wraps,T14-16,67.1,67.5,175,190.5,-200,,190.5,105,-110.5,-110.5,,105,200,210,-215,,210,505.5,SBD
1,Solomon Lee-Archer,M,2006-11-17,16,Australia,TAS,Wraps,T14-16,84.9,90,150,-165,-165,,150,105,112.5,115.5,-117.5,115.5,180,190,200,-210.5,200,465.5,SBD
1,Gus Garrard,M,2006-02-03,17,Australia,TAS,Wraps,S17-19,108,110,180,190,200,,200,100,105,110,,110,200,210,-220,,210,520,SBD
1,Leo O'Dea,M,1960-03-11,62,Australia,TAS,Raw,M60-69,70.9,75,,,,,,47.5,-52.5,55,,55,115,125,130.5,135,130.5,185.5,BD
1,Jack Simpson,M,2003-10-16,19,Australia,TAS,Raw,S17-19,108.4,110,,,,,,102.5,110,112.5,,112.5,190,210,-215,,210,322.5,BD
1,Damian Ziomek,M,1985-10-02,37,Australia,TAS,Raw,S24-39,117.6,125,,,,,,75,85,-90,,85,125,135,145,,145,230,BD
1,Daniel Williams,M,1993-12-27,29,Australia,TAS,Raw,S24-39,105.6,110,,,,,,160,170,,,170,,,,,,170,B
1,Colby Savage,M,2007-02-22,16,Australia,TAS,Raw,T14-16,124.5,125,,,,,,,,,,,110,130,160,,160,160,D